module mw/result

go 1.17

require github.com/joho/godotenv v1.4.0

require (
	github.com/cespare/xxhash/v2 v2.1.2 // indirect
	github.com/dgryski/go-rendezvous v0.0.0-20200823014737-9f7001d12a5f // indirect
	github.com/gin-contrib/sse v0.1.0 // indirect
	github.com/gin-gonic/gin v1.7.7 // indirect
	github.com/go-playground/locales v0.14.0 // indirect
	github.com/go-playground/universal-translator v0.18.0 // indirect
	github.com/go-playground/validator/v10 v10.9.0 // indirect
	github.com/go-redis/redis/v8 v8.11.4 // indirect
	github.com/golang/protobuf v1.5.2 // indirect
	github.com/gorilla/mux v1.8.0 // indirect
	github.com/howeyc/fsnotify v0.9.0 // indirect
	github.com/jinzhu/inflection v1.0.0 // indirect
	github.com/jinzhu/now v1.1.4 // indirect
	github.com/json-iterator/go v1.1.12 // indirect
	github.com/leodido/go-urn v1.2.1 // indirect
	github.com/lib/pq v1.10.4 // indirect
	github.com/mattn/go-colorable v0.1.12 // indirect
	github.com/mattn/go-isatty v0.0.14 // indirect
	github.com/mattn/go-sqlite3 v1.14.9 // indirect
	github.com/modern-go/concurrent v0.0.0-20180306012644-bacd9c7ef1dd // indirect
	github.com/modern-go/reflect2 v1.0.2 // indirect
	github.com/pilu/config v0.0.0-20131214182432-3eb99e6c0b9a // indirect
	github.com/pilu/fresh v0.0.0-20190826141211-0fa698148017 // indirect
	github.com/ugorji/go/codec v1.2.6 // indirect
	golang.org/x/crypto v0.0.0-20211209193657-4570a0811e8b // indirect
	golang.org/x/sys v0.0.0-20211210111614-af8b64212486 // indirect
	golang.org/x/text v0.3.7 // indirect
	google.golang.org/protobuf v1.27.1 // indirect
	gopkg.in/yaml.v2 v2.4.0 // indirect
	gorm.io/driver/sqlite v1.2.6 // indirect
	gorm.io/gorm v1.22.4 // indirect
)
